(---------------------------------------------------------------------)
(                                                                     )
(    CREATE SYMBOL                                                    )
(                                                                     )
(    Drawing          : NSSOP-16.dra                                  )
(    Software Version : unreleased                                    )
(    Date/Time        : Mon Apr  5 16:38:53 2021                      )
(                                                                     )
(---------------------------------------------------------------------)


Create Symbol of type: PACKAGE
    Directory = C:/works/rqc_pulse_counter/SCH_PCB_project/pcblib
    Name      = nssop-16.psm
    User      = alexs_temp
    Machine   = DESKTOP-HIB8RCV


Create symbol started.
 

Create symbol completed.

