(---------------------------------------------------------------------)
(                                                                     )
(    CREATE SYMBOL                                                    )
(                                                                     )
(    Drawing          : SOT223.dra                                    )
(    Software Version : unreleased                                    )
(    Date/Time        : Wed Apr  7 10:19:06 2021                      )
(                                                                     )
(---------------------------------------------------------------------)


Create Symbol of type: PACKAGE
    Directory = C:/works/rqc_pulse_counter/SCH_PCB_project/pcblib
    Name      = sot223.psm
    User      = alexs_temp
    Machine   = DESKTOP-HIB8RCV


Create symbol started.
 

Create symbol completed.

