(---------------------------------------------------------------------)
(                                                                     )
(    CREATE SYMBOL                                                    )
(                                                                     )
(    Drawing          : MDM80-P.dra                                   )
(    Software Version : 17.2S055                                      )
(    Date/Time        : Fri Jul 26 12:04:40 2019                      )
(                                                                     )
(---------------------------------------------------------------------)


Create Symbol of type: PACKAGE
    Directory = D:/my_padstack
    Name      = mdm80-p.psm
    User      = lukicheva-aa
    Machine   = LUKICHEVA-A


Create symbol started.
 

Create symbol completed.

