(---------------------------------------------------------------------)
(                                                                     )
(    CREATE SYMBOL                                                    )
(                                                                     )
(    Drawing          : TSMT8.dra                                     )
(    Software Version : 17.2060                                       )
(    Date/Time        : Tue Nov 12 13:47:44 2019                      )
(                                                                     )
(---------------------------------------------------------------------)


Create Symbol of type: PACKAGE
    Directory = D:/my_padstack
    Name      = tsmt8.psm
    User      = lukicheva-aa
    Machine   = LUKICHEVA-A


Create symbol started.
 

Create symbol completed.

