(---------------------------------------------------------------------)
(                                                                     )
(    Downrev Design                                                   )
(                                                                     )
(    Drawing          : via.pad                                       )
(    Software Version : 17.4P001                                      )
(    Date/Time        : Wed Apr 14 15:54:24 2021                      )
(                                                                     )
(---------------------------------------------------------------------)



Changes made to design for 17.2 compatibility.

