Wed Apr  7 17:53:08 2021				Page     1


 
Update Symbols/Modules Logfile
	Wed Apr  7 17:53:08 2021

------ Module Refresh Messages ------

SUMMARY:    Updated 0 out of 0 modules

------ End Module Messages     ------



(---------------------------------------------------------------------)
(                                                                     )
(    Refresh Symbol                                                   )
(                                                                     )
(    Drawing          : counter.brd                                   )
(    Software Version : unreleased                                    )
(    Date/Time        : Wed Apr  7 17:53:08 2021                      )
(                                                                     )
(---------------------------------------------------------------------)


Wed Apr  7 17:53:08 2021				Page     1


------ Symbol Refresh Directives ------

Input design  = 'C:/WORKS/RQC_PULSE_COUNTER/SCH_PCB_PROJECT/allegro/counter.brd'
Output design = ''

Update mechanical symbols              = 'NO'
Update format symbols                  = 'NO'
Update package symbols                 = 'YES'
Update shape/flash symbols             = 'YES'
Update symbol padstacks                = 'NO'
Preserve padstacks replaced on pins    = 'NO'
Reset symbol text and size locations   = 'NO'
Reset Pin Escapes (fanouts)            = 'NO'
Ripup Etch                             = 'NO'
Reset custom drill data                = 'NO'


------ Library Paths ------
PSMPATH =  C:/works/rqc_pulse_counter/SCH_PCB_project/pcblib 
           symbols 
           .. 
           ../symbols 
           c:/cadence/spb_17.4/share/local/pcb/symbols 
           c:/cadence/spb_17.4/share/pcb/pcb_lib/symbols 
           c:/cadence/spb_17.4/share/pcb/allegrolib/symbols 

PADPATH =  . 
           symbols 
           C:/works/rqc_pulse_counter/SCH_PCB_project/pcblib 
           ../symbols 
           c:/cadence/spb_17.4/share/local/pcb/padstacks 
           c:/cadence/spb_17.4/share/pcb/pcb_lib/symbols 
           c:/cadence/spb_17.4/share/pcb/allegrolib/symbols 


------ Symbol Refresh Messages ------

'LED_1608'  symbol refreshed successfully.
'SMD_BUTTON'  symbol refreshed successfully.
'R_1206'  symbol refreshed successfully.
'R_0402'  symbol refreshed successfully.
'L_1210'  symbol refreshed successfully.
'MINI_MELF'  symbol refreshed successfully.
'DO214AC'  symbol refreshed successfully.
'DO-213AB'  symbol refreshed successfully.
'C_EL_80X105'  symbol refreshed successfully.
'C_0805'  symbol refreshed successfully.
'C_0603'  symbol refreshed successfully.
'C_0402'  symbol refreshed successfully.
'PLS_2PIN'  symbol refreshed successfully.
'DJK-02'  symbol refreshed successfully.
'SOT-23'  symbol refreshed successfully.
'OSC'  symbol refreshed successfully.
'MINIDIP_4'  symbol refreshed successfully.
'SOT223'  symbol refreshed successfully.
'KLS1-SMA002-B'  symbol refreshed successfully.
'SOT65P210X110-6N'  symbol refreshed successfully.
'USB_TYPE_B'  symbol refreshed successfully.
'RJ45'  symbol refreshed successfully.
'PLS_8PIN'  symbol refreshed successfully.
'SOT-23-8'  symbol refreshed successfully.
'SOIC-8'  symbol refreshed successfully.
'FLYBACK_TRANS'  symbol refreshed successfully.
'JTAG_14PIN'  symbol refreshed successfully.
'NSSOP-16'  symbol refreshed successfully.
'TSSOP-20'  symbol refreshed successfully.
'QFN-20_3X3'  symbol refreshed successfully.
'SM51625EL'  symbol refreshed successfully.
'QFN-28'  symbol refreshed successfully.
'LQFP-48'  symbol refreshed successfully.
'FBGA-96'  symbol refreshed successfully.
'BGA256'  symbol refreshed successfully.
'PS_R121_48_D250'  symbol refreshed successfully.
'PS_R43_43_D100'  symbol refreshed successfully.


----- Symbol Update Summary ----

Updated symbols: 37 out 37
    Design updated.

